<?xml version="1.0" encoding="UTF-8" standalone="no"?>
<!-- Created with Inkscape (http://www.inkscape.org/) -->

<svg
   xmlns:dc="http://purl.org/dc/elements/1.1/"
   xmlns:cc="http://creativecommons.org/ns#"
   xmlns:rdf="http://www.w3.org/1999/02/22-rdf-syntax-ns#"
   xmlns:svg="http://www.w3.org/2000/svg"
   xmlns="http://www.w3.org/2000/svg"
   xmlns:sodipodi="http://sodipodi.sourceforge.net/DTD/sodipodi-0.dtd"
   xmlns:inkscape="http://www.inkscape.org/namespaces/inkscape"
   width="512"
   height="512"
   viewBox="0 0 512 512"
   version="1.1"
   id="svg8"
   inkscape:version="0.92.1 r15371"
   sodipodi:docname="white_pawn.svg">
  <defs
     id="defs2" />
  <sodipodi:namedview
     id="base"
     pagecolor="#ffffff"
     bordercolor="#666666"
     borderopacity="1.0"
     inkscape:pageopacity="0.0"
     inkscape:pageshadow="2"
     inkscape:zoom="1.3066406"
     inkscape:cx="122.06876"
     inkscape:cy="256"
     inkscape:document-units="px"
     inkscape:current-layer="layer1"
     showgrid="false"
     units="px"
     inkscape:pagecheckerboard="true"
     inkscape:window-width="792"
     inkscape:window-height="843"
     inkscape:window-x="800"
     inkscape:window-y="0"
     inkscape:window-maximized="0" />
  <metadata
     id="metadata5">
    <rdf:RDF>
      <cc:Work
         rdf:about="">
        <dc:format>image/svg+xml</dc:format>
        <dc:type
           rdf:resource="http://purl.org/dc/dcmitype/StillImage" />
        <dc:title />
      </cc:Work>
    </rdf:RDF>
  </metadata>
  <g
     inkscape:label="Layer 1"
     inkscape:groupmode="layer"
     id="layer1"
     transform="translate(0,-161.53332)">
    <path
       inkscape:connector-curvature="0"
       id="path4489"
       d="m 255.99999,622.15832 h -135 Q 111,597.15833 111,569.90835 q 0,-46.25001 26.24999,-83.00002 26.24999,-36.75001 67.50002,-52.49998 -17.75002,-8.25003 -29.00001,-24.75002 -11.00002,-16.74999 -11.00002,-37.75 0,-26.24999 17.50001,-45.49999 17.50001,-19.25001 42.99999,-22.25001 -20.24999,-15.25002 -20.24999,-40.25001 0,-21 14.75002,-36 15,-15 36.24998,-15 21,0 36,15 15,15 15,36 0,24.99999 -20.24999,40.25001 25.49998,3 42.99999,22.25001 17.5,19.25 17.5,45.49999 0,21.00001 -11.5,37.75 -11.24999,16.49999 -28.75,24.75002 41.24999,15.74997 67.49998,52.49998 26.25003,36.75001 26.25003,83.00002 0,27 -9.75001,52.24997 z"
       style="font-style:normal;font-variant:normal;font-weight:normal;font-stretch:normal;font-size:medium;line-height:1.25;font-family:'Chess Merida';-inkscape-font-specification:'Chess Merida';letter-spacing:0px;word-spacing:0px;fill:#000000;fill-opacity:1;stroke:none;stroke-width:12.79999924" />
    <path
       inkscape:connector-curvature="0"
       id="path4494"
       d="m 255.87402,605.50187 h 122.07874 q 7.55905,-15.11812 7.55905,-34.01576 0,-37.79527 -23.43307,-71.81103 -21.16535,-30.23622 -55.1811,-45.35433 -16.62992,0 -16.62992,-18.89764 0,-11.33858 16.62992,-18.89764 23.43307,-15.11811 23.43307,-41.57481 0,-18.89763 -13.22835,-34.01575 -12.85039,-15.11811 -31.37007,-18.89764 -15.11812,0 -15.11812,-15.11811 0,-7.55905 5.6693,-15.11811 13.6063,-7.55905 13.6063,-26.45669 0,-15.11812 -10.20473,-22.67717 -9.82677,-11.33858 -23.81102,-11.33858 -13.98425,0 -24.18898,11.33858 -9.82677,7.55905 -9.82677,22.67717 0,18.89764 13.6063,26.45669 5.66929,7.55906 5.66929,15.11811 0,15.11811 -14.74016,15.11811 -18.89764,3.77953 -31.74803,18.89764 -12.85039,15.11812 -12.85039,34.01575 0,26.4567 23.05511,41.57481 17.00788,7.55906 17.00788,18.89764 0,18.89764 -17.00788,18.89764 -34.01574,15.11811 -55.1811,45.35433 -21.54331,34.01576 -21.54331,71.81103 0,18.89764 5.29134,34.01576 z"
       style="font-style:normal;font-variant:normal;font-weight:normal;font-stretch:normal;font-size:medium;line-height:1.25;font-family:'Chess Merida';-inkscape-font-specification:'Chess Merida';letter-spacing:0px;word-spacing:0px;fill:#ffffff;fill-opacity:1;stroke:none;stroke-width:12.80125999" />
  </g>
</svg>
